*** Life<Cell> 8x8 ***

Generation = 0, Population = 3.
--------
--------
--------
--------
0--0----
-----0--
--------
--------

Generation = 1, Population = 11.
--------
--------
--------
0--0----
-00-00--
0--00-0-
-----0--
--------

Generation = 2, Population = 12.
--------
--------
0--0----
-----0--
011--1--
---1---0
0--0----
-----0--

Generation = 3, Population = 33.
--------
0--0----
-00-00--
-000010-
1-*-0*00
-0-*000-
-00100-0
0--00-0-

Generation = 4, Population = 8.
0--0----
-----0--
--------
--------
--.-1.-1
-1-.---0
--------
-----0--

Generation = 5, Population = 25.
-00-00--
0--00-0-
-----0--
----0--0
-1.0-.0*
0-0.0-01
-0---0-0
----0-0-

*** Life<Cell> 7x6 ***

Generation = 0, Population = 2.
------
------
------
--0---
----0-
------
------

Generation = 1, Population = 8.
------
------
--0---
-0-00-
--00-0
----0-
------

*** Life<Cell> 7x8 ***

Generation = 0, Population = 4.
-------0
--------
----0---
--------
--------
---0----
---0----

Generation = 2, Population = 13.
----00--
--------
--0---00
---0----
---10---
-0---0--
-0-*-0--

*** Life<Cell> 6x7 ***

Generation = 0, Population = 3.
0----0-
-------
-------
-------
---0---
-------

Generation = 1, Population = 9.
-0--0-0
0----0-
-------
---0---
--0-0--
---0---

Generation = 2, Population = 8.
--00-0-
-------
0--0-0-
-------
-0---0-
-------

Generation = 3, Population = 18.
-011--0
0-0----
-00---0
00-0---
0-0-0-0
-0---0-

Generation = 4, Population = 10.
-1**00-
-------
0----0-
-------
1--0-0-
-------

Generation = 5, Population = 21.
0***-10
00000--
-0--0-0
---0---
-00---0
0--0-0-

*** Life<Cell> 6x5 ***

Generation = 0, Population = 2.
-----
----0
-----
-----
-----
-0---

*** Life<Cell> 8x7 ***

Generation = 0, Population = 5.
--0----
0-0----
-------
-------
-----0-
-------
-0-----
-------

Generation = 1, Population = 16.
0010---
--10---
0-0----
-----0-
----0-0
-0---0-
0-0----
-0-----

Generation = 2, Population = 13.
1-*-0--
--*-0--
--1--0-
0-0----
-0-0---
-------
---0-0-
-------

Generation = 3, Population = 21.
--.-10-
00*-1--
00-0--0
-01--0-
--0-0--
-0---0-
--0---0
---0-0-

Generation = 4, Population = 17.
10.0-10
-1*0*-0
-1-----
-------
-01--0-
0-0----
-----0-
-------

*** Life<Cell> 6x5 ***

Generation = 0, Population = 6.
-----
--00-
---0-
-----
-00--
-0---

Generation = 1, Population = 15.
--00-
-01-0
---10
-000-
0-10-
01---

*** Life<Cell> 5x8 ***

Generation = 0, Population = 3.
--------
--------
--0-----
----0---
-0------

*** Life<Cell> 8x6 ***

Generation = 0, Population = 6.
------
------
------
---0-0
--0-0-
-0----
------
--0---

Generation = 2, Population = 16.
------
---0-0
--0-0-
---0--
0-0-0-
--0--0
--1-0-
010-0-

*** Life<Cell> 8x7 ***

Generation = 0, Population = 3.
-------
-------
-------
-------
------0
-------
--0----
--0----

Generation = 1, Population = 10.
-------
-------
-------
------0
-----0-
--0---0
-010---
-010---

Generation = 2, Population = 11.
-------
-------
------0
-------
--0-0-0
--1----
0---0-0
0-*-0--

*** Life<Cell> 5x7 ***

Generation = 0, Population = 2.
-------
0------
-------
---0---
-------

Generation = 2, Population = 6.
-------
0-00---
-------
00---0-
-------

*** Life<Cell> 6x8 ***

Generation = 0, Population = 6.
--------
-----0-0
-------0
00------
--0-----
--------

*** Life<Cell> 8x7 ***

Generation = 0, Population = 1.
-------
-0-----
-------
-------
-------
-------
-------
-------

*** Life<Cell> 5x8 ***

Generation = 0, Population = 4.
0-------
0-------
--------
--------
-0-0----

Generation = 2, Population = 8.
--0-----
*-0-----
10-0----
0-------
-----0--

Generation = 4, Population = 12.
-1*10---
.-*-0---
.*-0----
--------
10---0-0

*** Life<Cell> 7x7 ***

Generation = 0, Population = 4.
------0
----0--
-------
-------
-------
------0
---0---

Generation = 1, Population = 12.
----00-
---0-00
----0--
-------
------0
---0-0-
--0-0-0

*** Life<Cell> 5x6 ***

Generation = 0, Population = 2.
------
--00--
------
------
------

Generation = 1, Population = 8.
--00--
-0110-
--00--
------
------

Generation = 2, Population = 6.
------
01--10
------
--00--
------

Generation = 3, Population = 22.
00--00
1*11*1
000000
-0110-
--00--

Generation = 4, Population = 4.
------
*.**.*
------
------
------

Generation = 5, Population = 8.
0-00-0
......
0-00-0
------
------

*** Life<Cell> 5x8 ***

Generation = 0, Population = 2.
--------
--0-----
--------
--------
--0-----

Generation = 2, Population = 7.
--------
0---0---
--1-----
--1-----
0-0-0---

Generation = 4, Population = 6.
--0-----
0-1---0-
--.-----
--------
0-----0-

*** Life<Cell> 5x6 ***

Generation = 0, Population = 5.
------
------
---0--
-----0
0-00--

Generation = 1, Population = 11.
------
---0--
--0-00
0-0-0-
--1100

Generation = 2, Population = 13.
---0--
-----0
0010-1
---0-0
00--11

Generation = 3, Population = 15.
--0-00
000-01
1-----
---10-
111-*-

Generation = 4, Population = 14.
0-1---
------
*-10-1
-0-*-0
*-*1*1

*** Life<Cell> 8x6 ***

Generation = 0, Population = 1.
------
------
------
-0----
------
------
------
------

Generation = 1, Population = 4.
------
------
-0----
0-0---
-0----
------
------
------

Generation = 2, Population = 3.
------
-0----
------
---0--
------
-0----
------
------

Generation = 3, Population = 12.
-0----
0-0---
-0-0--
--0-0-
-0-0--
0-0---
-0----
------

Generation = 4, Population = 3.
------
------
------
-0---0
------
------
------
-0----

*** Life<Cell> 5x5 ***

Generation = 0, Population = 4.
-0-0-
-----
-----
-----
0--0-

Generation = 2, Population = 5.
-----
-----
00---
-----
-110-

Generation = 4, Population = 7.
00---
-----
**---
-----
-*1-1
