*** Life<ConwayCell> 8x8 ***

Generation = 0, Population = 3.
........
........
........
........
*..*....
.....*..
........
........

Generation = 1, Population = 0.
........
........
........
........
........
........
........
........

Generation = 2, Population = 0.
........
........
........
........
........
........
........
........

Generation = 3, Population = 0.
........
........
........
........
........
........
........
........

Generation = 4, Population = 0.
........
........
........
........
........
........
........
........

Generation = 5, Population = 0.
........
........
........
........
........
........
........
........

*** Life<ConwayCell> 7x6 ***

Generation = 0, Population = 2.
......
......
......
..*...
....*.
......
......

Generation = 1, Population = 0.
......
......
......
......
......
......
......

*** Life<ConwayCell> 7x8 ***

Generation = 0, Population = 4.
.......*
........
....*...
........
........
...*....
...*....

Generation = 2, Population = 0.
........
........
........
........
........
........
........

*** Life<ConwayCell> 6x7 ***

Generation = 0, Population = 3.
*....*.
.......
.......
.......
...*...
.......

Generation = 1, Population = 0.
.......
.......
.......
.......
.......
.......

Generation = 2, Population = 0.
.......
.......
.......
.......
.......
.......

Generation = 3, Population = 0.
.......
.......
.......
.......
.......
.......

Generation = 4, Population = 0.
.......
.......
.......
.......
.......
.......

Generation = 5, Population = 0.
.......
.......
.......
.......
.......
.......

*** Life<ConwayCell> 6x5 ***

Generation = 0, Population = 2.
.....
....*
.....
.....
.....
.*...

*** Life<ConwayCell> 8x7 ***

Generation = 0, Population = 5.
..*....
*.*....
.......
.......
.....*.
.......
.*.....
.......

Generation = 1, Population = 2.
.*.....
.*.....
.......
.......
.......
.......
.......
.......

Generation = 2, Population = 0.
.......
.......
.......
.......
.......
.......
.......
.......

Generation = 3, Population = 0.
.......
.......
.......
.......
.......
.......
.......
.......

Generation = 4, Population = 0.
.......
.......
.......
.......
.......
.......
.......
.......

*** Life<ConwayCell> 6x5 ***

Generation = 0, Population = 6.
.....
..**.
...*.
.....
.**..
.*...

Generation = 1, Population = 9.
.....
..**.
..**.
..*..
.**..
.**..

*** Life<ConwayCell> 5x8 ***

Generation = 0, Population = 3.
........
........
..*.....
....*...
.*......

*** Life<ConwayCell> 8x6 ***

Generation = 0, Population = 6.
......
......
......
...*.*
..*.*.
.*....
......
..*...

Generation = 2, Population = 5.
......
......
......
..*.*.
..*.*.
...*..
......
......

*** Life<ConwayCell> 8x7 ***

Generation = 0, Population = 3.
.......
.......
.......
.......
......*
.......
..*....
..*....

Generation = 1, Population = 0.
.......
.......
.......
.......
.......
.......
.......
.......

Generation = 2, Population = 0.
.......
.......
.......
.......
.......
.......
.......
.......

*** Life<ConwayCell> 5x7 ***

Generation = 0, Population = 2.
.......
*......
.......
...*...
.......

Generation = 2, Population = 0.
.......
.......
.......
.......
.......

*** Life<ConwayCell> 6x8 ***

Generation = 0, Population = 6.
........
.....*.*
.......*
**......
..*.....
........

*** Life<ConwayCell> 8x7 ***

Generation = 0, Population = 1.
.......
.*.....
.......
.......
.......
.......
.......
.......

*** Life<ConwayCell> 5x8 ***

Generation = 0, Population = 4.
*.......
*.......
........
........
.*.*....

Generation = 2, Population = 0.
........
........
........
........
........

Generation = 4, Population = 0.
........
........
........
........
........

*** Life<ConwayCell> 7x7 ***

Generation = 0, Population = 4.
......*
....*..
.......
.......
.......
......*
...*...

Generation = 1, Population = 0.
.......
.......
.......
.......
.......
.......
.......

*** Life<ConwayCell> 5x6 ***

Generation = 0, Population = 2.
......
..**..
......
......
......

Generation = 1, Population = 0.
......
......
......
......
......

Generation = 2, Population = 0.
......
......
......
......
......

Generation = 3, Population = 0.
......
......
......
......
......

Generation = 4, Population = 0.
......
......
......
......
......

Generation = 5, Population = 0.
......
......
......
......
......

*** Life<ConwayCell> 5x8 ***

Generation = 0, Population = 2.
........
..*.....
........
........
..*.....

Generation = 2, Population = 0.
........
........
........
........
........

Generation = 4, Population = 0.
........
........
........
........
........

*** Life<ConwayCell> 5x6 ***

Generation = 0, Population = 5.
......
......
...*..
.....*
*.**..

Generation = 1, Population = 3.
......
......
......
..***.
......

Generation = 2, Population = 3.
......
......
...*..
...*..
...*..

Generation = 3, Population = 3.
......
......
......
..***.
......

Generation = 4, Population = 3.
......
......
...*..
...*..
...*..

*** Life<ConwayCell> 8x6 ***

Generation = 0, Population = 1.
......
......
......
.*....
......
......
......
......

Generation = 1, Population = 0.
......
......
......
......
......
......
......
......

Generation = 2, Population = 0.
......
......
......
......
......
......
......
......

Generation = 3, Population = 0.
......
......
......
......
......
......
......
......

Generation = 4, Population = 0.
......
......
......
......
......
......
......
......

*** Life<ConwayCell> 5x5 ***

Generation = 0, Population = 4.
.*.*.
.....
.....
.....
*..*.

Generation = 2, Population = 0.
.....
.....
.....
.....
.....

Generation = 4, Population = 0.
.....
.....
.....
.....
.....
