*** Life<ConwayCell> 8x4 ***

Generation = 0, Population = 6.
..**
....
*..*
....
..*.
....
....
.*..

Generation = 1, Population = 2.
....
..**
....
....
....
....
....
....

Generation = 2, Population = 0.
....
....
....
....
....
....
....
....

Generation = 3, Population = 0.
....
....
....
....
....
....
....
....

Generation = 4, Population = 0.
....
....
....
....
....
....
....
....

Generation = 5, Population = 0.
....
....
....
....
....
....
....
....

*** Life<ConwayCell> 10x9 ***

Generation = 0, Population = 43.
.*......*
.*.*.*..*
*..******
.....*.**
.*.**.*..
*..***...
***.*..*.
****.....
**......*
**.**.***

Generation = 1, Population = 25.
..*......
**.*.*..*
..**.....
..*.....*
..**..**.
*.....*..
.....*...
...*.....
....*...*
***....**

Generation = 2, Population = 26.
.**......
.*.**....
...**....
.*.....*.
.***..**.
.....***.
.........
....*....
.***...**
.*.....**

Generation = 3, Population = 30.
.***.....
.*..*....
...**....
.*..*.**.
.**..*..*
..*..*.*.
.....**..
..**.....
.***...**
.*.....**

Generation = 4, Population = 40.
.***.....
.*..*....
..***....
.*..*.**.
.*****..*
.**.**.*.
..*****..
.*.**.**.
.*.*...**
.*.....**

Generation = 5, Population = 23.
.***.....
.*..*....
.**.*....
.*....**.
*.......*
.......*.
.........
.*......*
**.**....
..*....**

Generation = 6, Population = 27.
.***.....
*...*....
****.*...
***....*.
......*.*
.........
.........
***......
**.*...**
.***.....

Generation = 7, Population = 20.
.***.....
*...*....
...**....
*..*..**.
.*.....*.
.........
.*.......
*.*......
...*.....
**.*.....

Generation = 8, Population = 21.
.***.....
.*..*....
...***...
..***.**.
......**.
.........
.*.......
.**......
*..*.....
..*......

Generation = 9, Population = 18.
.***.....
.*...*...
......*..
..*....*.
...*.***.
.........
.**......
***......
...*.....
.........

Generation = 10, Population = 16.
.**......
.*.......
......*..
.....*.*.
......**.
..*...*..
*.*......
*..*.....
.**......
.........

*** Life<ConwayCell> 5x3 ***

Generation = 0, Population = 5.
.**
...
.*.
*..
*..

Generation = 1, Population = 4.
...
.**
...
**.
...

Generation = 2, Population = 2.
...
...
*.*
...
...

Generation = 3, Population = 0.
...
...
...
...
...

Generation = 4, Population = 0.
...
...
...
...
...

Generation = 5, Population = 0.
...
...
...
...
...

Generation = 6, Population = 0.
...
...
...
...
...

Generation = 7, Population = 0.
...
...
...
...
...

Generation = 8, Population = 0.
...
...
...
...
...

Generation = 9, Population = 0.
...
...
...
...
...

*** Life<ConwayCell> 7x10 ***

Generation = 0, Population = 40.
.***..***.
****.*****
*.***...*.
**....*..*
..*..*.*.*
*.*.*.**.*
.*.*..****

Generation = 2, Population = 17.
....**....
...*.*....
....*...*.
.*.....*..
..*....*.*
.........*
.*****....

Generation = 4, Population = 10.
....**....
...*.*....
....*.....
..........
..........
..*.*.....
..***.....

Generation = 6, Population = 5.
....**....
...*.*....
....*.....
..........
..........
..........
..........

*** Life<ConwayCell> 4x2 ***

Generation = 0, Population = 5.
.*
.*
.*
**

Generation = 2, Population = 4.
..
**
..
**

Generation = 4, Population = 0.
..
..
..
..

Generation = 6, Population = 0.
..
..
..
..

Generation = 8, Population = 0.
..
..
..
..

*** Life<ConwayCell> 7x3 ***

Generation = 0, Population = 9.
**.
*..
...
*.*
..*
**.
*..

Generation = 1, Population = 12.
**.
**.
.*.
.*.
*.*
**.
**.

Generation = 2, Population = 13.
**.
..*
.**
***
*.*
..*
**.

Generation = 3, Population = 10.
.*.
*.*
*..
*..
*.*
*.*
.*.

Generation = 4, Population = 8.
.*.
*..
*..
*..
*..
*.*
.*.

Generation = 5, Population = 9.
...
**.
**.
**.
*..
*..
.*.

Generation = 6, Population = 6.
...
**.
..*
...
*..
**.
...

Generation = 7, Population = 6.
...
.*.
.*.
...
**.
**.
...

Generation = 8, Population = 6.
...
...
...
**.
**.
**.
...

Generation = 9, Population = 5.
...
...
...
**.
..*
**.
...

Generation = 10, Population = 3.
...
...
...
.*.
..*
.*.
...

*** Life<ConwayCell> 9x10 ***

Generation = 0, Population = 35.
.***.*....
.*..**...*
...*......
*.**.....*
.....****.
***..*.*..
..**..**.*
*****.**..
........*.

Generation = 2, Population = 32.
.**.*.....
**.*......
.*.*.***..
.*....*.*.
........*.
.**..**...
.*....*...
.*.****...
.******...

Generation = 4, Population = 25.
*****.....
*..*...*..
.***......
..**......
...**.....
...***.*..
.......**.
......**..
**........

*** Life<ConwayCell> 2x4 ***

Generation = 0, Population = 4.
.*.*
.*.*

*** Life<ConwayCell> 4x7 ***

Generation = 0, Population = 16.
..****.
*.****.
**.**.*
.*..*..

Generation = 3, Population = 8.
.......
*.***..
*....*.
*....*.

Generation = 6, Population = 5.
..***..
.......
..**...
.......

Generation = 9, Population = 0.
.......
.......
.......
.......

*** Life<ConwayCell> 8x5 ***

Generation = 0, Population = 17.
*****
*.*..
*.*..
..*.*
.**..
*....
...*.
*..*.

Generation = 1, Population = 11.
*.**.
*....
..*..
..*..
.***.
.**..
.....
.....

Generation = 2, Population = 7.
.*...
..**.
.*...
.....
...*.
.*.*.
.....
.....

Generation = 3, Population = 6.
..*..
.**..
..*..
.....
..*..
..*..
.....
.....

Generation = 4, Population = 7.
.**..
.***.
.**..
.....
.....
.....
.....
.....

Generation = 5, Population = 6.
.*.*.
*..*.
.*.*.
.....
.....
.....
.....
.....

Generation = 6, Population = 6.
..*..
**.**
..*..
.....
.....
.....
.....
.....

Generation = 7, Population = 8.
.***.
.*.*.
.***.
.....
.....
.....
.....
.....

Generation = 8, Population = 7.
.*.*.
*...*
.*.*.
..*..
.....
.....
.....
.....
