7

3 3
1
1 0
10 2

8 8
18
0 1
3 3
5 0
3 6
2 7
3 4
1 2
2 4
7 2
0 6
5 1
0 6
6 2
1 5
0 5
7 0
4 5
4 5
9 1

9 8
69
1 5
1 1
2 5
5 3
3 2
4 1
0 5
4 2
7 6
7 0
5 2
3 3
8 2
2 7
4 4
2 7
8 6
5 7
4 6
8 7
7 0
3 3
8 2
1 6
4 6
0 3
3 7
3 4
1 6
1 6
5 2
0 3
4 7
7 1
1 6
3 7
2 7
0 1
5 3
4 1
4 6
5 3
1 7
3 6
3 0
7 3
0 4
6 7
6 4
0 1
1 6
8 3
4 3
1 0
7 4
7 7
5 6
6 3
5 7
5 0
3 7
3 7
7 0
1 4
3 4
1 6
6 1
7 6
8 5
3 3

3 1
2
0 0
2 0
9 1

4 8
16
1 2
1 1
0 3
2 2
1 0
1 4
2 0
0 7
2 5
1 6
2 2
3 0
3 1
1 4
2 4
3 1
10 1

10 5
41
8 4
7 1
4 2
2 1
6 1
8 3
7 1
9 2
7 0
1 4
9 3
5 3
8 1
2 0
0 1
9 0
3 2
0 3
2 0
5 3
4 0
1 4
5 4
9 3
8 0
5 3
7 0
7 3
8 4
8 2
5 0
6 4
0 1
3 4
6 1
0 3
5 0
1 0
4 3
2 3
7 2
7 3

3 7
12
2 0
2 4
0 6
1 6
2 1
0 3
2 6
1 2
1 4
0 3
2 4
2 5
9 3
