*** Life<FredkinCell> 10x10 ***

Generation = 0, Population = 19.
0--0------
--0--0---0
---0----0-
--00------
--------0-
---000----
-------0--
-----0----
--------0-
--0-----00

Generation = 10, Population = 50.
03----4---
5--2-32-2-
-1--221---
-2-2-6---0
11--3-2311
-----23333
-113---202
0103-00-2-
1020---2--
--212--3--

Generation = 20, Population = 59.
--252--6--
835-25-37-
-3574----5
0-6---46-5
9457--45-8
57-90--546
-----3370-
26-752--32
--412-2--5
354-5-4584

*** Life<FredkinCell> 5x5 ***

Generation = 0, Population = 10.
00000
00000
-----
-----
-----

Generation = 1, Population = 11.
-111-
-111-
00000
-----
-----

Generation = 2, Population = 15.
0-2-0
-2-2-
11111
00000
-----

Generation = 3, Population = 15.
-1-1-
03-30
--2--
-111-
00000

Generation = 4, Population = 15.
-2-2-
1-1-1
11311
-----
11111

Generation = 5, Population = 7.
--2--
2-2-2
--4--
-----
2---2

*** Life<FredkinCell> 3x3 ***

Generation = 0, Population = 4.
-0-
0-0
-0-

Generation = 1, Population = 0.
---
---
---

Generation = 2, Population = 0.
---
---
---

Generation = 3, Population = 0.
---
---
---

Generation = 4, Population = 0.
---
---
---

*** Life<FredkinCell> 46x46 ***

Generation = 0, Population = 20.
0--0------------------------------------------
--0-------------------------------------------
---0------------------------------------------
--00------------------------------------------
----------------------------------------------
----------------------------------------------
----------------------------------------------
----------------------------------------------
----------------------------------------------
--------0-------------------------------------
----------------------------------------------
----------------------------------------------
----------------------------------------------
----------------------------------------------
----------------------------------------------
----------------------------------------------
----------------------------------------------
----------------------------------------------
-----------------0----------------------------
-------------------0--------------------------
--------------------0-------------------------
----------------------------------------------
----------------------------------------------
----------------------------0-----------------
----------------------------------------------
----------------------------------------------
----------------------------------------------
----------------------------------------------
----------------------------------------------
---------------------------------0------------
----------------------------------0-----------
----------------------------------------------
---------------------------------------------0
---------------------------------0------------
----------------------------------------------
----------------------------------------------
----------------------------------------------
----------------------------------------------
----------------------------------------------
---------------------------------------------0
----0-----------------------------------0-----
----------------------------------------------
----------------------------------------------
----------------------------------------------
----------------------------------------------
--------------------------------------------00

Generation = 10, Population = 234.
-3--11---10--0--------------------------------
----2---4--10---------------------------------
-1---10-11-2-0--------------------------------
0-----4--23-10--------------------------------
22---1-----1----------------------------------
1-2-------00----------------------------------
-10--1----------------------------------------
0---------------0-----------------------------
-10--0-----------0----------------------------
---30---------0---00--------------------------
10-3-0---------0---10-------------------------
-12-10----------01---0------------------------
---1-------------00---0-----------------------
--00---------------1--------0-----------------
--------------------1-------------------------
--------0-----------------0---0---------------
---------0---------------0--------------------
------0---00---------------00-----------------
-------0---10----------1---10-----------------
--------01---2-----------2---0---0------------
---------00---1----------01---0---0-----------
-----------0--------0------0---0---00---------
------------0---------------0---0---1--------0
------------------0---0-----------1---0-------
-----------------0----------------1--------0-0
-------------------00----------1---00---------
---------------0---10------------------------0
-----------------1---0---0-------0-------0----
-----------------00---0---0---------------0---
-------------------0---0---11----------0---0-0
----0---------------0---0---2--------0-0----0-
--------------------------1---0------------0-0
--0---0-------------------0--------0-112-0----
-----------------------0---00----------2---0-0
----0--------------------------------0-01-----
-------------------------0-------0-------0--03
----------------------------------0-----------
-------------------------------0---0-0-0--023-
--0---------0-----------------------0-------00
-----------------------------------0-0-0-0020-
0---0-----0---0---------------0-----------11-1
-------------------------------0---0-0-0----24
--0-0-------0-------------------0-------1---10
---------------------------------0--00-02----2
--0---0-------------------------------1---1---
----------------------------------012---2312--

*** Life<FredkinCell> 2x2 ***

Generation = 0, Population = 1.
0-
--

Generation = 1, Population = 2.
-0
0-

Generation = 2, Population = 0.
--
--

Generation = 3, Population = 0.
--
--

*** Life<FredkinCell> 15x21 ***

Generation = 0, Population = 12.
---------------------
---------------------
---00----------------
---------------------
---------------------
---------0-----------
-----------0---------
------------0--------
---------------------
---------------------
---------------------
---------------------
--------------0----00
---------------------
00------------0---0--

Generation = 3, Population = 95.
--0110---------------
-000000--------------
01211210-0-----------
-000000-0-00---------
--0110-0-001---------
---00-0-000-1--------
-------002-0---------
--------0-1----0-----
---------0----0------
-------------00----00
------------00-0--011
00----------0---00-0-
110--------0----1101-
0-00----------0-00000
13-10------0-0---0120

Generation = 6, Population = 105.
001441000--0---------
-------1---10--------
1-21122---1--0-------
-----0---00--10------
0--11---0--1---0-----
---1---10--12--10----
-01---1--2---11--0-00
-----00--11--01---0--
00-00--0---00-1110--2
-------01--10---0----
-210-----11-01-10-1--
---------01---0------
---000--0-01-1----343
------------0--------
-----2100---0-00-1--1

Generation = 9, Population = 105.
---------00-0--------
--00----0-0-1--------
-1521----02111-------
--0-0------00-1----00
-00240-------0-1-0011
-20-0-----------1---0
2------------1-0--23-
-----1---------------
330-1--------0-1-1-12
00-00-------------000
--1320-------2-2--132
---00-0----01--0---0-
-----1-0-0042-213--4-
-----00--1--1-000----
----2-1032-21--1-1-4-

Generation = 12, Population = 109.
--3-5--2---23-10---00
-1---1---0---0---0---
-2-3--4-2--2--100-12-
----0---------------0
-0-----11-12--022-02-
-2---1---0---0-------
-2---2-1--010--1--5--
1-------1-------1-2--
-431-11---010-11--222
-1-------0-------1---
-3-4-1-0-2-0--25--2-3
----0---------------1
331--2-1-11---214-457
-----0---1---1-------
-5-1-4-1-2-5101-2-351

Generation = 15, Population = 152.
21--5--33--3-1-1---11
0200-102000-----0-012
-3-414-22-3--2----23-
-11---2--2--0-1-02-01
0-0-4------3-0--513-3
-20--20--00-3--2-0112
-3-2--310331--3-026--
20300----130-1--21--2
45342423--1---22---2-
-1013--24-0---01-12--
--25----0-10-2---23--
--------0--0---00--0-
--41---112-751527---7
000-----01--1--2-0---
3---------0-1--32-4-2

*** Life<FredkinCell> 10x12 ***

Generation = 0, Population = 8.
------------
0-----------
0000--------
0-----------
0-----------
------------
------------
------------
------------
--0---------

Generation = 2, Population = 20.
1000--------
--1---------
200210------
--1---------
-1-0--------
1-----------
0-----------
--0---------
------------
0-0-0-------

Generation = 4, Population = 28.
-022--------
1-1-1-------
400-1210----
--3-1-------
--1-1-------
3-0---------
2110--------
1-0---------
1-----------
0-----0-----

Generation = 6, Population = 35.
-2----00----
--1---1-----
-0-2321210--
1-3---1-----
2-10-1-0----
5-0---------
41-2-0------
----0-0-----
-1-0--------
2---0-0-0---

Generation = 8, Population = 26.
------------
--1---1-1---
4--4321-1210
3-5---3-1---
2132--1-1---
5-----------
------------
------------
1-----------
----0-----0-

Generation = 10, Population = 43.
2--3001-1000
--1-------1-
--2-323-321-
3---------1-
415-3----1-0
------1-1---
-212--0-0---
2---0-----0-
1-0---------
--0-0-0-0-0-
