8

5 6
15
0 3
1 5
2 3
3 1
0 4
3 3
3 0
4 5
0 1
0 3
3 3
1 1
4 1
1 4
3 3
13 4

6 7
12
1 4
1 2
1 3
5 2
5 2
4 5
0 0
4 5
2 5
2 4
1 2
4 6
18 4

5 8
12
4 2
4 4
4 3
1 2
4 5
2 6
3 3
4 6
2 3
2 5
1 4
4 0
2 3

10 5
5
8 3
2 1
6 0
5 0
7 0
14 2

9 5
8
1 3
6 1
0 1
6 4
2 0
0 1
7 3
8 4
10 3

9 10
25
0 1
6 2
7 7
1 6
5 9
4 7
1 4
4 7
4 4
7 7
7 7
7 5
4 9
3 4
2 9
6 6
4 0
4 5
5 0
1 3
5 9
1 3
6 3
6 4
5 1
8 5

5 6
14
3 2
2 3
0 2
4 3
4 5
2 0
4 5
4 5
0 3
1 4
4 0
4 4
0 2
4 5
10 3

6 6
12
4 5
5 1
2 0
3 2
4 1
4 1
4 0
2 2
4 1
0 2
2 2
0 2
9 5
