*** Life<ConwayCell> 5x5 ***

Generation = 0, Population = 15.
*..**
*.*.*
..**.
***.*
*.*.*

Generation = 1, Population = 11.
.*.**
..*.*
*...*
*...*
*.*..

Generation = 2, Population = 11.
..***
.**.*
.*..*
*..*.
.*...

Generation = 3, Population = 11.
.**.*
.*..*
**..*
***..
.....

Generation = 4, Population = 8.
.***.
....*
...*.
*.*..
.*...

Generation = 5, Population = 7.
..**.
....*
...*.
.**..
.*...

Generation = 6, Population = 9.
...*.
..*.*
..**.
.**..
.**..

Generation = 7, Population = 5.
...*.
..*.*
.....
.....
.**..

*** Life<ConwayCell> 5x5 ***

Generation = 0, Population = 15.
.**.*
*..*.
***..
..***
****.

Generation = 1, Population = 10.
.***.
*..*.
*...*
....*
.*..*

Generation = 2, Population = 10.
.***.
*..**
...**
...**
.....

Generation = 3, Population = 8.
.****
.*...
..*..
...**
.....

Generation = 4, Population = 7.
.***.
.*...
..**.
...*.
.....

Generation = 5, Population = 7.
.**..
.*...
..**.
..**.
.....

Generation = 6, Population = 8.
.**..
.*.*.
.*.*.
..**.
.....

Generation = 7, Population = 10.
.**..
**.*.
.*.**
..**.
.....

*** Life<ConwayCell> 1x10 ***

Generation = 0, Population = 8.
.**.******

Generation = 1, Population = 4.
.....****.

Generation = 2, Population = 2.
......**..

Generation = 3, Population = 0.
..........

Generation = 4, Population = 0.
..........

*** Life<ConwayCell> 10x1 ***

Generation = 0, Population = 8.
*
*
*
*
*
.
.
*
*
*

Generation = 1, Population = 4.
.
*
*
*
.
.
.
.
*
.

Generation = 2, Population = 1.
.
.
*
.
.
.
.
.
.
.

Generation = 3, Population = 0.
.
.
.
.
.
.
.
.
.
.

Generation = 4, Population = 0.
.
.
.
.
.
.
.
.
.
.

*** Life<ConwayCell> 10x10 ***

Generation = 0, Population = 20.
*.**.*..*.
....*.*...
...**.....
....*.....
......*...
.*..*.*.*.
.*....*...
.*........
..........
.*..*.....

Generation = 1, Population = 16.
...***....
..*.......
...**.....
...***....
.......*..
......*...
***..*.*..
..........
..........
..........

Generation = 2, Population = 17.
...**.....
..*..*....
..*..*....
...*.*....
....***...
.*....**..
.*....*...
.*........
..........
..........

Generation = 3, Population = 17.
...**.....
..*..*....
..**.**...
...*......
....*..*..
.......*..
***...**..
..........
..........
..........

Generation = 4, Population = 20.
...**.....
..*..**...
..**.**...
..**.**...
..........
.*.....**.
.*....**..
.*........
..........
..........

Generation = 5, Population = 23.
...***....
..*...*...
.*.....*..
..**.**...
..*...**..
......***.
***...***.
..........
..........
..........

Generation = 6, Population = 26.
...***....
..*****...
.*.*.*.*..
.***.*....
..**....*.
..*..*....
.*....*.*.
.*.....*..
..........
..........

Generation = 7, Population = 14.
..*...*...
..........
.*........
.*....*...
..........
.***...*..
.**...**..
.......*..
..........
..........

Generation = 8, Population = 12.
..........
..........
..........
..........
.*........
.*.*..**..
.*.*..***.
......**..
..........
..........

Generation = 9, Population = 9.
..........
..........
..........
..........
..*.......
**....*.*.
.....*..*.
......*.*.
..........
..........

Generation = 10, Population = 8.
..........
..........
..........
..........
.*........
.*.....*..
.....**.**
.......*..
..........
..........

Generation = 11, Population = 8.
..........
..........
..........
..........
..........
......***.
......*.*.
......***.
..........
..........

Generation = 12, Population = 8.
..........
..........
..........
..........
.......*..
......*.*.
.....*...*
......*.*.
.......*..
..........

Generation = 13, Population = 12.
..........
..........
..........
..........
.......*..
......***.
.....**.**
......***.
.......*..
..........

Generation = 14, Population = 12.
..........
..........
..........
..........
......***.
.....*...*
.....*...*
.....*...*
......***.
..........

Generation = 15, Population = 19.
..........
..........
..........
.......*..
......***.
.....*.*.*
....***.**
.....*.*.*
......***.
.......*..

Generation = 16, Population = 12.
..........
..........
..........
......***.
..........
....*....*
....*....*
....*....*
..........
......***.

Generation = 17, Population = 12.
..........
..........
.......*..
.......*..
.......**.
..........
...***..**
..........
.......**.
.......*..

Generation = 18, Population = 15.
..........
..........
..........
......**..
.......**.
....*..*.*
....*.....
....*..*.*
.......**.
.......**.

Generation = 19, Population = 12.
..........
..........
..........
......***.
..........
.......*..
...***....
.......*..
......*..*
.......**.

Generation = 20, Population = 13.
..........
..........
.......*..
.......*..
......*.*.
....*.....
....*.*...
....***...
......*...
.......**.

*** Life<ConwayCell> 10x10 ***

Generation = 0, Population = 20.
*....*....
..........
.*.....*..
.*.....*..
*.......*.
...**.....
.*.*.*.*..
....*....*
.*...*....
.....**...

Generation = 1, Population = 19.
..........
..........
..........
**.....**.
..........
..***.....
..**.*....
..*.***...
....***...
.....**...

Generation = 2, Population = 12.
..........
..........
..........
..........
.***......
..*.*.....
.*....*...
..*.......
...*...*..
....*.*...

Generation = 3, Population = 9.
..........
..........
..........
..*.......
.***......
..........
.***......
..*.......
...*......
..........

Generation = 4, Population = 10.
..........
..........
..........
.***......
.***......
..........
.***......
.*........
..........
..........

Generation = 5, Population = 8.
..........
..........
..*.......
.*.*......
.*.*......
..........
.**.......
.*........
..........
..........

Generation = 6, Population = 8.
..........
..........
..*.......
.*.*......
..........
.*........
.**.......
.**.......
..........
..........

Generation = 7, Population = 8.
..........
..........
..*.......
..*.......
..*.......
.**.......
*.........
.**.......
..........
..........

Generation = 8, Population = 9.
..........
..........
..........
.***......
..**......
.**.......
*.........
.*........
..........
..........

Generation = 9, Population = 8.
..........
..........
..*.......
.*.*......
..........
.***......
*.*.......
..........
..........
..........

Generation = 10, Population = 9.
..........
..........
..*.......
..*.......
.*.*......
.***......
..**......
..........
..........
..........

Generation = 11, Population = 9.
..........
..........
..........
.***......
.*.*......
.*..*.....
.*.*......
..........
..........
..........

Generation = 12, Population = 12.
..........
..........
..*.......
.*.*......
**.**.....
**.**.....
..*.......
..........
..........
..........

Generation = 13, Population = 10.
..........
..........
..*.......
**.**.....
..........
*...*.....
.***......
..........
..........
..........

Generation = 14, Population = 17.
..........
..........
.***......
.***......
**.**.....
.***......
.***......
..*.......
..........
..........

Generation = 15, Population = 8.
..........
..*.......
.*.*......
..........
*...*.....
..........
..........
.***......
..........
..........

Generation = 16, Population = 5.
..........
..*.......
..*.......
..........
..........
..........
..*.......
..*.......
..*.......
..........

Generation = 17, Population = 3.
..........
..........
..........
..........
..........
..........
..........
.***......
..........
..........

Generation = 18, Population = 3.
..........
..........
..........
..........
..........
..........
..*.......
..*.......
..*.......
..........

Generation = 19, Population = 3.
..........
..........
..........
..........
..........
..........
..........
.***......
..........
..........

Generation = 20, Population = 3.
..........
..........
..........
..........
..........
..........
..*.......
..*.......
..*.......
..........

*** Life<ConwayCell> 10x20 ***

Generation = 0, Population = 60.
..........******....
...*.*..*.*.*.*.....
...*.*..*....**.....
.*.*...*..*...*....*
........*....*......
..****...*........*.
.**.***.**.*.*......
.....**.*...*......*
.*.*......*...*.**..
**.***..*....*.*...*

Generation = 3, Population = 56.
........****........
.......**.....*.....
......*...**.*.*....
...*****......**....
.*.*..**............
*.....**............
.*.*..**............
..**....***.....*...
...*.******....*.*..
..*********.....**..

Generation = 6, Population = 43.
....................
.......*.....**.....
...*.........*.*....
...*..........**....
.**.*...*...........
***.******..........
*....***.**.........
..*.*....***....*...
..*.*.....**...*.*..
...*............**..

Generation = 9, Population = 39.
....................
.............**.....
....*........*.*....
...***........**....
...*.....**.........
*...**...**.........
*.*.***..**.........
..*..**.........*...
.**.**.........*.*..
...**...........**..

Generation = 12, Population = 33.
....................
....*........**.....
..**.*.......*.*....
..*..*........**....
..*.*....**.........
........*..*........
.........**.........
.**.............*...
*....*.........*.*..
.***.*..........**..

Generation = 15, Population = 33.
...*................
..***........**.....
.*.**........*.*....
.**...........**....
.........**.........
........*..*........
.........**.........
................*...
.****..........*.*..
.**.*...........**..

Generation = 18, Population = 31.
...*................
..*.*........**.....
.*..*........*.*....
.*.*..........**....
.***.....**.........
........*..*........
.........**.........
..**............*...
..**...........*.*..
................**..

Generation = 21, Population = 32.
...*................
.**.**.......**.....
*....*.......*.*....
..............**....
*...*....**.........
....*...*..*........
.*.......**.........
.*..*...........*...
..**...........*.*..
................**..

Generation = 24, Population = 24.
....................
***..........**.....
.............*.*....
..............**....
.........**.........
........*..*........
.........**.........
..**............*...
..**...........*.*..
................**..

Generation = 27, Population = 24.
.*..................
.*...........**.....
.*...........*.*....
..............**....
.........**.........
........*..*........
.........**.........
..**............*...
..**...........*.*..
................**..

Generation = 30, Population = 24.
....................
***..........**.....
.............*.*....
..............**....
.........**.........
........*..*........
.........**.........
..**............*...
..**...........*.*..
................**..

Generation = 33, Population = 24.
.*..................
.*...........**.....
.*...........*.*....
..............**....
.........**.........
........*..*........
.........**.........
..**............*...
..**...........*.*..
................**..

Generation = 36, Population = 24.
....................
***..........**.....
.............*.*....
..............**....
.........**.........
........*..*........
.........**.........
..**............*...
..**...........*.*..
................**..

Generation = 39, Population = 24.
.*..................
.*...........**.....
.*...........*.*....
..............**....
.........**.........
........*..*........
.........**.........
..**............*...
..**...........*.*..
................**..

*** Life<ConwayCell> 10x20 ***

Generation = 0, Population = 60.
......*......**..*..
*.*...*.*.***.*.*...
.*......*......*....
.*....*.*........**.
.......**.*...**...*
.......*.***..*.....
.......**....*....*.
.*.......*.**...***.
..**.**..****.****..
..*...*..*..*.*.....

Generation = 3, Population = 48.
.*..................
*.*.....*....**.....
.......*....*.......
***....*.....*......
.......*............
......*......*..*...
..*....**.*....**.*.
.**........**..****.
**.*.*.*..*....***..
..*...*****...*.....

Generation = 6, Population = 38.
.*..................
*.*.................
...*................
*.*.................
*..............***..
.**.........***.....
*..*...*...**......*
*..*.......**......*
*..*..*...*..**..*..
.**....***..........

Generation = 9, Population = 37.
.**.................
.*.*................
...**...............
.*.*................
*..............***..
..**.......**.***...
.*..*.........**....
...***....*...*.....
*..*...**.*..*......
.*.........**.......

Generation = 12, Population = 31.
.***................
.*.**...............
....................
....................
..*.............**..
**..................
.*..*.......**...*..
.*..*....*.*.*.**...
..*.*....*..........
...*.....****.......

Generation = 15, Population = 34.
...**...............
...**...............
....................
.*..................
**..............*...
*............*****..
............*.*.**..
...***.....**..*....
..*..*..*..*........
..***...***.........

Generation = 18, Population = 37.
...**...............
...**...............
....................
.*............*.....
..*.........*.......
.****.......*....*..
..**.*.....*........
..**.**.....*.***...
..*..*..*..**.......
..***...***.........

Generation = 21, Population = 23.
...**...............
...**...............
....................
....................
....................
.....*.........*....
....*.........***...
...***........***...
.......*.*..........
..****.*............

Generation = 24, Population = 19.
...**...............
...**...............
....................
....................
....................
..............***...
..***.........*.*...
..*.*.........***...
..*.*...............
....................

Generation = 27, Population = 25.
...**...............
...**...............
....................
....................
..............***...
..***........*...*..
.*...*.......*...*..
.**.**.......*...*..
..............***...
....................

Generation = 30, Population = 26.
...**...............
...**...............
...............*....
...*...........*....
..*.*..........*....
.*...*..............
.*...*.....***...***
.**.**..............
...............*....
...............*....

Generation = 33, Population = 26.
...**...............
..*.*...............
....................
..............***...
....................
**...**.....*.....*.
*.....**....*.....*.
**...**.....*.....*.
.*...*..............
....................

Generation = 36, Population = 29.
...**...............
...**...............
...............*....
...............*....
......**.......*....
.....*..*...........
.....*..*..***...***
**..**.**...........
**...**.............
....................

Generation = 39, Population = 34.
...**...............
...**...............
....................
..............***...
......***...........
....*...***.*.....*.
....*.*..*..*.....*.
**.*.....**.*.....*.
**..*..**...........
....*...............
